<svg width="63" height="16" viewBox="0 0 63 16" fill="none" xmlns="http://www.w3.org/2000/svg">
<path d="M62.327 8.70711C62.7175 8.31659 62.7175 7.68342 62.327 7.2929L55.963 0.928938C55.5725 0.538413 54.9393 0.538413 54.5488 0.928938C54.1583 1.31946 54.1583 1.95263 54.5488 2.34315L60.2057 8.00001L54.5488 13.6569C54.1583 14.0474 54.1583 14.6805 54.5488 15.0711C54.9393 15.4616 55.5725 15.4616 55.963 15.0711L62.327 8.70711ZM0.53418 9L61.6199 9.00001L61.6199 7.00001L0.53418 7L0.53418 9Z" fill="#002A5C"/>
</svg>
