<svg width="64" height="64" viewBox="0 0 64 64" fill="none" xmlns="http://www.w3.org/2000/svg">
<path d="M7.44824 7.46034V62.8991C7.44824 63.488 7.92559 63.9654 8.51449 63.9654H49.0275C49.616 63.9654 50.0933 63.488 50.0933 62.8991V18.1219C50.0933 18.0982 50.0819 18.078 50.0797 18.0548C50.0744 17.9612 50.056 17.869 50.0253 17.7807C50.0134 17.7465 50.0051 17.7135 49.9901 17.6802C49.9383 17.5642 49.8663 17.4584 49.7767 17.3679L39.1155 6.70676C39.0251 6.61674 38.9188 6.54472 38.802 6.49334C38.7699 6.47973 38.7374 6.46831 38.7041 6.45821C38.6149 6.42747 38.5222 6.40902 38.4278 6.40288C38.4098 6.40595 38.3887 6.39453 38.3664 6.39453H8.51449C7.92559 6.39453 7.44824 6.87144 7.44824 7.46034ZM46.4537 17.0557H39.4322V10.0342L46.4537 17.0557ZM9.5803 8.52659H37.3001V18.1219C37.3001 18.7104 37.7775 19.1878 38.3659 19.1878H47.9613V61.8333H9.5803V8.52659Z" fill="#002A5C"/>
<path d="M52.2257 55.4387V57.5708H55.424C56.0129 57.5708 56.4902 57.0939 56.4902 56.505V1.06625C56.4902 0.477352 56.0129 0 55.424 0H14.911C14.3221 0 13.8447 0.477352 13.8447 1.06625V4.26455H15.9772V2.13206H54.3578V55.4387H52.2257Z" fill="#002A5C"/>
<path d="M15.9766 21.3242H41.5634V23.4563H15.9766V21.3242Z" fill="#002A5C"/>
<path d="M15.9766 14.9258H24.5057V17.0583H15.9766V14.9258Z" fill="#002A5C"/>
<path d="M15.9766 27.7188H33.0348V29.8512H15.9766V27.7188Z" fill="#002A5C"/>
<path d="M35.167 27.7188H41.5636V29.8512H35.167V27.7188Z" fill="#002A5C"/>
<path d="M15.9766 34.1172H41.5634V36.2497H15.9766V34.1172Z" fill="#002A5C"/>
<path d="M15.9766 46.9102H41.5634V49.0426H15.9766V46.9102Z" fill="#002A5C"/>
<path d="M25.5723 40.5117H41.5642V42.6438H25.5723V40.5117Z" fill="#002A5C"/>
<path d="M15.9766 40.5117H23.4394V42.6438H15.9766V40.5117Z" fill="#002A5C"/>
<path d="M15.9766 53.3086H20.2411V55.4407H15.9766V53.3086Z" fill="#002A5C"/>
<path d="M22.374 53.3086H41.5643V55.4407H22.374V53.3086Z" fill="#002A5C"/>
</svg>
