<svg width="71" height="16" viewBox="0 0 71 16" fill="none" xmlns="http://www.w3.org/2000/svg">
<path d="M70.7071 8.70711C71.0976 8.31659 71.0976 7.68342 70.7071 7.2929L64.3431 0.928938C63.9526 0.538413 63.3195 0.538413 62.9289 0.928938C62.5384 1.31946 62.5384 1.95263 62.9289 2.34315L68.5858 8.00001L62.9289 13.6569C62.5384 14.0474 62.5384 14.6805 62.9289 15.0711C63.3195 15.4616 63.9526 15.4616 64.3431 15.0711L70.7071 8.70711ZM-8.74228e-08 9L70 9.00001L70 7.00001L8.74228e-08 7L-8.74228e-08 9Z" fill="#002A5C"/>
</svg>
