<svg width="29" height="21" viewBox="0 0 29 21" fill="none" xmlns="http://www.w3.org/2000/svg">
<path d="M0 13.125C0 9.09677 2.99859 5.77501 6.8672 5.30653C8.36913 2.1665 11.5555 0 15.2436 0C20.3152 0 24.4382 4.09694 24.5367 9.18855C27.1033 9.854 29 12.2036 29 15C29 18.3137 26.3367 21 23.0513 21H5.94872C2.23077 20.25 0 16.9044 0 13.125Z" fill="#6CEB8F"/>
<path d="M9 11.4L12.75 15L19 9" stroke="#1E9370" stroke-width="2"/>
</svg>
